{
  "name": "HotOrNot",
  "dataLabels": [
    {"name":"Eating"},
    {"name":"Computer"},
    {"name":"Sport"}],
  "userData": [
    {
      "userId": 1,
      "userName": "Dor",
      "score": [100,100,100]
    },
    {
      "userId": 2,
      "userName": "Dor2",
      "score": [100,100,100]
    }
  ]
}